[
  {
    "id": "1",
    "name": "Vacheron Constantin",
    "img": "/images/watch1.jpg",
    "articul": "12345",
    "price": "$1200",
    "color": "чорний, білий, золотий"
  },
  {
    "id": "2",
    "name": "Breguet",
    "img": "/images/watch2.webp",
    "articul": "12346",
    "price": "$1210",
    "color": "чорний, білий, золотий"
  },
  {
    "id": "3",
    "name": "Patek Philippe",
    "img": "/images/watch3.jpg",
    "articul": "12347",
    "price": "$1360",
    "color": "чорний, білий, золотий"
  },
  {
    "id": "4",
    "name": "Ulysse Nardin",
    "img": "/images/watch4.webp",
    "articul": "12348",
    "price": "$950",
    "color": "чорний, білий, золотий"
  },
  {
    "id": "5",
    "name": "Rolex",
    "img": "/images/watch5.webp",
    "articul": "12349",
    "price": "$1500",
    "color": "чорний, білий, золотий"
  },
  {
    "id": "6",
    "name": "Raymond Weil",
    "img": "/images/watch6.webp",
    "articul": "12350",
    "price": "$2200",
    "color": "чорний, білий, золотий"
  },
  {
    "id": "7",
    "name": "Bell & Ross",
    "img": "/images/watch7.jpg",
    "articul": "12351",
    "price": "$1700",
    "color": "чорний, білий, золотий"
  },
  {
    "id": "8",
    "name": "Bvlgari",
    "img": "/images/watch8.webp",
    "articul": "12352",
    "price": "$1100",
    "color": "чорний, білий, золотий"
  },
  {
    "id": "9",
    "name": "Seiko",
    "img": "/images/watch9.jpeg",
    "articul": "12353",
    "price": "$1350",
    "color": "чорний, білий, золотий"
  },
  {
    "id": "10",
    "name": "Maurice Lacroix",
    "img": "/images/watch10.jpeg",
    "articul": "12354",
    "price": "$1500",
    "color": "чорний, білий, золотий"
  }
]
